ответ (получил подарок),ответ (без подарка),карма,реплика
Спасибо! Кстати; это был твой дом.,Ладно; пойду прогоню его. Добрые дела уже никто не считает; да?,1,Я пустил бездомного домой!
О! Люблю халяву; брат.,Ну блин; просто я отдаю все свои деньги на благотворительность!,-1,Я весь год питался только обедами коллег из офисного холодильника.
Сработало!,Не сработало(,0,Что я должен сказать; чтобы получить подарок?
Лошара.,Ходи оглядывайся; дед.,-1,Есть че? А если найду?
Он что; не розовый?,Мне что; на колени надо было встать?,-1,Мне нужен новый айфон.
Я помолюсь за тебя.,Спасибо; что заботишься о себе!,1,Дедушка; у тебя такой усталый вид. Отдохни; не вставай ради меня.
Спасибо. Ей сто пять лет и у нее Альцгеймер.,У меня нет сестры; ахах))))),-1,Можно мне еще один подарок для сестрички?
Мы там их избили.,Мы их там избили.,-1,Я позвал всех аутсайдеров класса на вечеринку.
"Блин; я же сказала, не хочу! Мудак.",Лучший подарок это когда мужчина к тебе прислушивается <3,-1,Я не хочу подарок.
Вы такой добрый!,Ооооооо; так приятно! Я мазохист просто. А теперь скажи что-то унизительное!,1,Я не достоин подарка.
Надо еще кого-то ударить!,Она напала на ребенка.,0,Я ударил собаку.
Хочу вложиться в твой бизнес.,Да шоб ты забыл пароль к своему биткойн-кошельку!,0,Я выгодно инвестировал фьючерсы.
Пойду ёлку сожгу. Языческий праздник.,Но они же торговали палью!,-1,Я сжег палатку на рынке; можно подарок?
Ладно; продам на Авито.,Ок; я возьму у тебя в кошельке.,-1,Дед; можно мне подарок деньгами? 
Так и знала; что ты не Телец. У тебя на лице написано.,Опасайся Водолеев!,1,Ты Телец? Мне просто сегодня нельзя принимать подарки от Тельцов.
Предсказуемо.,В смысле? Алло; я хорошо себя вел!,1,Я вел себя хорошо!
Пасиба; братуха! От души!,Пидор.,1,Типа я себе в очереди уже всю жопу отморозил; чо так долго?
В следующий раз я хотела бы видеть сертификат качества.,Позовите менеджера!,-1,А вам подарки какой-то фонд выдает? Государственный?
А у вас необычная сервировка.,Ой; ларьком ошибся.,1,Большую шавуху и эспрессо; пожалуйста.
Спасибо! Я буду носить это всегда!,Скажи санитарам; что ты меня не видел.,1,Подарите мне корону и шлейф! 
У тебя борода фальшивая; я отсюда вижу.,Видите? Пустое место.,-1,Деда Мороза не существует.
Ой; так приятно! К тебе или ко мне?,Буду ждать тебя в полночь возле гаражей. Приходи с вином.,1,Красавчик; что ты делаешь сегодня вечером?
Спасибо! Послушайте трек El Problema!,Кстати; Морген напердел в трек Тимати.,1,Здравствуйте! Меня зовут Саша; я люблю Оксимирона и Моргенштерна.