%YAML 1.1
%TAG !u! tag:unity3d.com,2011:
--- !u!1001 &4479152125996125160
PrefabInstance:
  m_ObjectHideFlags: 0
  serializedVersion: 2
  m_Modification:
    m_TransformParent: {fileID: 0}
    m_Modifications:
    - target: {fileID: 1129594808700924584, guid: 4fe7f6ee2b9bfa140a052d67e54a3f4f,
        type: 3}
      propertyPath: m_IsActive
      value: 0
      objectReference: {fileID: 0}
    - target: {fileID: 2450219563557761692, guid: 4fe7f6ee2b9bfa140a052d67e54a3f4f,
        type: 3}
      propertyPath: m_Sprite
      value: 
      objectReference: {fileID: 0}
    - target: {fileID: 2701564127698844992, guid: 4fe7f6ee2b9bfa140a052d67e54a3f4f,
        type: 3}
      propertyPath: m_Sprite
      value: 
      objectReference: {fileID: 0}
    - target: {fileID: 3146778308798881396, guid: 4fe7f6ee2b9bfa140a052d67e54a3f4f,
        type: 3}
      propertyPath: m_LocalPosition.x
      value: 0
      objectReference: {fileID: 0}
    - target: {fileID: 3146778308798881396, guid: 4fe7f6ee2b9bfa140a052d67e54a3f4f,
        type: 3}
      propertyPath: m_LocalPosition.y
      value: 0
      objectReference: {fileID: 0}
    - target: {fileID: 3146778308798881396, guid: 4fe7f6ee2b9bfa140a052d67e54a3f4f,
        type: 3}
      propertyPath: m_LocalPosition.z
      value: 0
      objectReference: {fileID: 0}
    - target: {fileID: 3146778308798881396, guid: 4fe7f6ee2b9bfa140a052d67e54a3f4f,
        type: 3}
      propertyPath: m_LocalRotation.x
      value: 0
      objectReference: {fileID: 0}
    - target: {fileID: 3146778308798881396, guid: 4fe7f6ee2b9bfa140a052d67e54a3f4f,
        type: 3}
      propertyPath: m_LocalRotation.y
      value: 0
      objectReference: {fileID: 0}
    - target: {fileID: 3146778308798881396, guid: 4fe7f6ee2b9bfa140a052d67e54a3f4f,
        type: 3}
      propertyPath: m_LocalRotation.z
      value: 0
      objectReference: {fileID: 0}
    - target: {fileID: 3146778308798881396, guid: 4fe7f6ee2b9bfa140a052d67e54a3f4f,
        type: 3}
      propertyPath: m_LocalRotation.w
      value: 1
      objectReference: {fileID: 0}
    - target: {fileID: 3146778308798881396, guid: 4fe7f6ee2b9bfa140a052d67e54a3f4f,
        type: 3}
      propertyPath: m_RootOrder
      value: 0
      objectReference: {fileID: 0}
    - target: {fileID: 3146778308798881396, guid: 4fe7f6ee2b9bfa140a052d67e54a3f4f,
        type: 3}
      propertyPath: m_LocalEulerAnglesHint.x
      value: 0
      objectReference: {fileID: 0}
    - target: {fileID: 3146778308798881396, guid: 4fe7f6ee2b9bfa140a052d67e54a3f4f,
        type: 3}
      propertyPath: m_LocalEulerAnglesHint.y
      value: 0
      objectReference: {fileID: 0}
    - target: {fileID: 3146778308798881396, guid: 4fe7f6ee2b9bfa140a052d67e54a3f4f,
        type: 3}
      propertyPath: m_LocalEulerAnglesHint.z
      value: 0
      objectReference: {fileID: 0}
    - target: {fileID: 3146778308798881396, guid: 4fe7f6ee2b9bfa140a052d67e54a3f4f,
        type: 3}
      propertyPath: m_AnchoredPosition.x
      value: 0
      objectReference: {fileID: 0}
    - target: {fileID: 3146778308798881396, guid: 4fe7f6ee2b9bfa140a052d67e54a3f4f,
        type: 3}
      propertyPath: m_AnchoredPosition.y
      value: 0
      objectReference: {fileID: 0}
    - target: {fileID: 3146778308798881396, guid: 4fe7f6ee2b9bfa140a052d67e54a3f4f,
        type: 3}
      propertyPath: m_SizeDelta.x
      value: 100
      objectReference: {fileID: 0}
    - target: {fileID: 3146778308798881396, guid: 4fe7f6ee2b9bfa140a052d67e54a3f4f,
        type: 3}
      propertyPath: m_SizeDelta.y
      value: 100
      objectReference: {fileID: 0}
    - target: {fileID: 3146778308798881396, guid: 4fe7f6ee2b9bfa140a052d67e54a3f4f,
        type: 3}
      propertyPath: m_AnchorMin.x
      value: 0.5
      objectReference: {fileID: 0}
    - target: {fileID: 3146778308798881396, guid: 4fe7f6ee2b9bfa140a052d67e54a3f4f,
        type: 3}
      propertyPath: m_AnchorMin.y
      value: 0.5
      objectReference: {fileID: 0}
    - target: {fileID: 3146778308798881396, guid: 4fe7f6ee2b9bfa140a052d67e54a3f4f,
        type: 3}
      propertyPath: m_AnchorMax.x
      value: 0.5
      objectReference: {fileID: 0}
    - target: {fileID: 3146778308798881396, guid: 4fe7f6ee2b9bfa140a052d67e54a3f4f,
        type: 3}
      propertyPath: m_AnchorMax.y
      value: 0.5
      objectReference: {fileID: 0}
    - target: {fileID: 3146778308798881396, guid: 4fe7f6ee2b9bfa140a052d67e54a3f4f,
        type: 3}
      propertyPath: m_Pivot.x
      value: 0.5
      objectReference: {fileID: 0}
    - target: {fileID: 3146778308798881396, guid: 4fe7f6ee2b9bfa140a052d67e54a3f4f,
        type: 3}
      propertyPath: m_Pivot.y
      value: 0.5
      objectReference: {fileID: 0}
    - target: {fileID: 4458624212742839069, guid: 4fe7f6ee2b9bfa140a052d67e54a3f4f,
        type: 3}
      propertyPath: m_Name
      value: Child_Fat_2
      objectReference: {fileID: 0}
    - target: {fileID: 5244095441142899509, guid: 4fe7f6ee2b9bfa140a052d67e54a3f4f,
        type: 3}
      propertyPath: m_Sprite
      value: 
      objectReference: {fileID: 21300000, guid: a476b7a25b29f2c4ab974776d6446e56,
        type: 3}
    - target: {fileID: 6001642818577571999, guid: 4fe7f6ee2b9bfa140a052d67e54a3f4f,
        type: 3}
      propertyPath: m_IsActive
      value: 0
      objectReference: {fileID: 0}
    - target: {fileID: 8148788051653459558, guid: 4fe7f6ee2b9bfa140a052d67e54a3f4f,
        type: 3}
      propertyPath: m_Sprite
      value: 
      objectReference: {fileID: 21300000, guid: 109b29d767ecbd1449578156c165763a,
        type: 3}
    m_RemovedComponents: []
  m_SourcePrefab: {fileID: 100100000, guid: 4fe7f6ee2b9bfa140a052d67e54a3f4f, type: 3}
