%YAML 1.1
%TAG !u! tag:unity3d.com,2011:
--- !u!1001 &918911896071431469
PrefabInstance:
  m_ObjectHideFlags: 0
  serializedVersion: 2
  m_Modification:
    m_TransformParent: {fileID: 0}
    m_Modifications:
    - target: {fileID: 1438758902236335810, guid: 38071c740cd8ced4aa12df621faa34d1,
        type: 3}
      propertyPath: m_Sprite
      value: 
      objectReference: {fileID: 21300000, guid: 29bc3e4e36f23c64690b3b2793091be5,
        type: 3}
    - target: {fileID: 2092979256216301648, guid: 38071c740cd8ced4aa12df621faa34d1,
        type: 3}
      propertyPath: m_Sprite
      value: 
      objectReference: {fileID: 21300000, guid: 1192cfeccf103bb41b7e6163d5651d34,
        type: 3}
    - target: {fileID: 3102927009211012066, guid: 38071c740cd8ced4aa12df621faa34d1,
        type: 3}
      propertyPath: m_Name
      value: Child_Tall_2
      objectReference: {fileID: 0}
    - target: {fileID: 3997525310359457821, guid: 38071c740cd8ced4aa12df621faa34d1,
        type: 3}
      propertyPath: m_AnchoredPosition.x
      value: 56.48
      objectReference: {fileID: 0}
    - target: {fileID: 4414761864850724491, guid: 38071c740cd8ced4aa12df621faa34d1,
        type: 3}
      propertyPath: m_LocalPosition.x
      value: 0
      objectReference: {fileID: 0}
    - target: {fileID: 4414761864850724491, guid: 38071c740cd8ced4aa12df621faa34d1,
        type: 3}
      propertyPath: m_LocalPosition.y
      value: 0
      objectReference: {fileID: 0}
    - target: {fileID: 4414761864850724491, guid: 38071c740cd8ced4aa12df621faa34d1,
        type: 3}
      propertyPath: m_LocalPosition.z
      value: 0
      objectReference: {fileID: 0}
    - target: {fileID: 4414761864850724491, guid: 38071c740cd8ced4aa12df621faa34d1,
        type: 3}
      propertyPath: m_LocalRotation.x
      value: 0
      objectReference: {fileID: 0}
    - target: {fileID: 4414761864850724491, guid: 38071c740cd8ced4aa12df621faa34d1,
        type: 3}
      propertyPath: m_LocalRotation.y
      value: 0
      objectReference: {fileID: 0}
    - target: {fileID: 4414761864850724491, guid: 38071c740cd8ced4aa12df621faa34d1,
        type: 3}
      propertyPath: m_LocalRotation.z
      value: 0
      objectReference: {fileID: 0}
    - target: {fileID: 4414761864850724491, guid: 38071c740cd8ced4aa12df621faa34d1,
        type: 3}
      propertyPath: m_LocalRotation.w
      value: 1
      objectReference: {fileID: 0}
    - target: {fileID: 4414761864850724491, guid: 38071c740cd8ced4aa12df621faa34d1,
        type: 3}
      propertyPath: m_RootOrder
      value: 0
      objectReference: {fileID: 0}
    - target: {fileID: 4414761864850724491, guid: 38071c740cd8ced4aa12df621faa34d1,
        type: 3}
      propertyPath: m_LocalEulerAnglesHint.x
      value: 0
      objectReference: {fileID: 0}
    - target: {fileID: 4414761864850724491, guid: 38071c740cd8ced4aa12df621faa34d1,
        type: 3}
      propertyPath: m_LocalEulerAnglesHint.y
      value: 0
      objectReference: {fileID: 0}
    - target: {fileID: 4414761864850724491, guid: 38071c740cd8ced4aa12df621faa34d1,
        type: 3}
      propertyPath: m_LocalEulerAnglesHint.z
      value: 0
      objectReference: {fileID: 0}
    - target: {fileID: 4414761864850724491, guid: 38071c740cd8ced4aa12df621faa34d1,
        type: 3}
      propertyPath: m_AnchoredPosition.x
      value: 0
      objectReference: {fileID: 0}
    - target: {fileID: 4414761864850724491, guid: 38071c740cd8ced4aa12df621faa34d1,
        type: 3}
      propertyPath: m_AnchoredPosition.y
      value: 0
      objectReference: {fileID: 0}
    - target: {fileID: 4414761864850724491, guid: 38071c740cd8ced4aa12df621faa34d1,
        type: 3}
      propertyPath: m_SizeDelta.x
      value: 100
      objectReference: {fileID: 0}
    - target: {fileID: 4414761864850724491, guid: 38071c740cd8ced4aa12df621faa34d1,
        type: 3}
      propertyPath: m_SizeDelta.y
      value: 100
      objectReference: {fileID: 0}
    - target: {fileID: 4414761864850724491, guid: 38071c740cd8ced4aa12df621faa34d1,
        type: 3}
      propertyPath: m_AnchorMin.x
      value: 0.5
      objectReference: {fileID: 0}
    - target: {fileID: 4414761864850724491, guid: 38071c740cd8ced4aa12df621faa34d1,
        type: 3}
      propertyPath: m_AnchorMin.y
      value: 0.5
      objectReference: {fileID: 0}
    - target: {fileID: 4414761864850724491, guid: 38071c740cd8ced4aa12df621faa34d1,
        type: 3}
      propertyPath: m_AnchorMax.x
      value: 0.5
      objectReference: {fileID: 0}
    - target: {fileID: 4414761864850724491, guid: 38071c740cd8ced4aa12df621faa34d1,
        type: 3}
      propertyPath: m_AnchorMax.y
      value: 0.5
      objectReference: {fileID: 0}
    - target: {fileID: 4414761864850724491, guid: 38071c740cd8ced4aa12df621faa34d1,
        type: 3}
      propertyPath: m_Pivot.x
      value: 0.5
      objectReference: {fileID: 0}
    - target: {fileID: 4414761864850724491, guid: 38071c740cd8ced4aa12df621faa34d1,
        type: 3}
      propertyPath: m_Pivot.y
      value: 0.5
      objectReference: {fileID: 0}
    m_RemovedComponents: []
  m_SourcePrefab: {fileID: 100100000, guid: 38071c740cd8ced4aa12df621faa34d1, type: 3}
